Esercitazione12/data/81.csv

Record Length,2500,Points,-249.99998E-6,79.999998E-3,,Record Length,2500,Points,-249.99998E-6,3.12000,
Sample Interval,200.00000E-9,s,-249.79998E-6,79.999998E-3,,Sample Interval,200.00000E-9,s,-249.79998E-6,3.20000,
Trigger Point,1.2500E3,Samples,-249.59998E-6,79.999998E-3,,Trigger Point,1.2500E3,Samples,-249.59998E-6,3.20000,
,,,-249.39998E-6,79.999998E-3,,,,,-249.39998E-6,3.20000,
,,,-249.19998E-6,79.999998E-3,,,,,-249.19998E-6,3.24000,
,,,-248.99998E-6,79.999998E-3,,,,,-248.99998E-6,3.12000,
Source,CH1,,-248.79997E-6,79.999998E-3,,Source,CH2,,-248.79997E-6,3.20000,
Vertical Units,Volts,,-248.59997E-6,79.999998E-3,,Vertical Units,Volts,,-248.59997E-6,120.0000E-3,
Vertical Scale,1.000,,-248.39997E-6,79.999998E-3,,Vertical Scale,1.000,,-248.39997E-6,120.0000E-3,
Vertical Offset,0,,-248.19997E-6,79.999998E-3,,Vertical Offset,0,,-248.19997E-6,120.0000E-3,
Horizontal Units,s,,-248.00000E-6,79.999998E-3,,Horizontal Units,s,,-248.00000E-6,199.99999E-3,
Horizontal Scale,50.00000E-6,,-247.80000E-6,120.0000E-3,,Horizontal Scale,50.00000E-6,,-247.80000E-6,160.00000E-3,
Pt Fmt,Y,,-247.59999E-6,79.999998E-3,,Pt Fmt,Y,,-247.59999E-6,120.0000E-3,
Yzero,-3.04000,,-247.39999E-6,79.999998E-3,,Yzero,-2.0000,,-247.39999E-6,160.00000E-3,
Probe Atten,10.0000,,-247.19999E-6,40.00000E-3,,Probe Atten,10.0000,,-247.19999E-6,120.0000E-3,
,,,-246.99999E-6,120.0000E-3,,,,,-246.99999E-6,120.0000E-3,
Note,TDS 1012C-EDU - 18:25:59   04/04/2017,,-246.79999E-6,120.0000E-3,,Note,TDS 1012C-EDU - 18:25:59   04/04/2017,,-246.79999E-6,160.00000E-3,
,,,-246.59999E-6,120.0000E-3,,,,,-246.59999E-6,160.00000E-3,
,,,-246.39998E-6,120.0000E-3,,,,,-246.39998E-6,160.00000E-3,
,,,-246.19998E-6,160.00000E-3,,,,,-246.19998E-6,160.00000E-3,
,,,-245.99998E-6,120.0000E-3,,,,,-245.99998E-6,199.99999E-3,
,,,-245.79998E-6,120.0000E-3,,,,,-245.79998E-6,160.00000E-3,
,,,-245.59998E-6,79.999998E-3,,,,,-245.59998E-6,160.00000E-3,
,,,-245.39998E-6,79.999998E-3,,,,,-245.39998E-6,199.99999E-3,
,,,-245.19998E-6,79.999998E-3,,,,,-245.19998E-6,160.00000E-3,
,,,-244.99997E-6,120.0000E-3,,,,,-244.99997E-6,199.99999E-3,
,,,-244.79997E-6,79.999998E-3,,,,,-244.79997E-6,160.00000E-3,
,,,-244.59997E-6,120.0000E-3,,,,,-244.59997E-6,120.0000E-3,
,,,-244.39997E-6,120.0000E-3,,,,,-244.39997E-6,120.0000E-3,
,,,-244.20000E-6,40.00000E-3,,,,,-244.20000E-6,120.0000E-3,
,,,-243.99998E-6,120.0000E-3,,,,,-243.99998E-6,160.00000E-3,
,,,-243.79998E-6,79.999998E-3,,,,,-243.79998E-6,120.0000E-3,
,,,-243.59998E-6,120.0000E-3,,,,,-243.59998E-6,160.00000E-3,
,,,-243.39998E-6,79.999998E-3,,,,,-243.39998E-6,120.0000E-3,
,,,-243.19999E-6,79.999998E-3,,,,,-243.19999E-6,160.00000E-3,
,,,-242.99999E-6,120.0000E-3,,,,,-242.99999E-6,160.00000E-3,
,,,-242.79999E-6,79.999998E-3,,,,,-242.79999E-6,120.0000E-3,
,,,-242.59998E-6,160.00000E-3,,,,,-242.59998E-6,160.00000E-3,
,,,-242.39998E-6,79.999998E-3,,,,,-242.39998E-6,199.99999E-3,
,,,-242.19998E-6,79.999998E-3,,,,,-242.19998E-6,120.0000E-3,
,,,-241.99998E-6,120.0000E-3,,,,,-241.99998E-6,199.99999E-3,
,,,-241.79998E-6,40.00000E-3,,,,,-241.79998E-6,160.00000E-3,
,,,-241.59998E-6,79.999998E-3,,,,,-241.59998E-6,160.00000E-3,
,,,-241.39998E-6,79.999998E-3,,,,,-241.39998E-6,160.00000E-3,
,,,-241.19999E-6,79.999998E-3,,,,,-241.19999E-6,160.00000E-3,
,,,-240.99999E-6,40.00000E-3,,,,,-240.99999E-6,160.00000E-3,
,,,-240.79999E-6,79.999998E-3,,,,,-240.79999E-6,199.99999E-3,
,,,-240.59998E-6,79.999998E-3,,,,,-240.59998E-6,120.0000E-3,
,,,-240.39998E-6,79.999998E-3,,,,,-240.39998E-6,199.99999E-3,
,,,-240.19998E-6,79.999998E-3,,,,,-240.19998E-6,199.99999E-3,
,,,-239.99998E-6,79.999998E-3,,,,,-239.99998E-6,160.00000E-3,
,,,-239.79998E-6,79.999998E-3,,,,,-239.79998E-6,120.0000E-3,
,,,-239.59998E-6,79.999998E-3,,,,,-239.59998E-6,160.00000E-3,
,,,-239.39999E-6,79.999998E-3,,,,,-239.39999E-6,160.00000E-3,
,,,-239.19999E-6,40.00000E-3,,,,,-239.19999E-6,120.0000E-3,
,,,-238.99999E-6,79.999998E-3,,,,,-238.99999E-6,79.999998E-3,
,,,-238.79998E-6,120.0000E-3,,,,,-238.79998E-6,79.999998E-3,
,,,-238.59998E-6,79.999998E-3,,,,,-238.59998E-6,160.00000E-3,
,,,-238.39998E-6,79.999998E-3,,,,,-238.39998E-6,319.99999E-3,
,,,-238.19998E-6,79.999998E-3,,,,,-238.19998E-6,160.00000E-3,
,,,-237.99998E-6,79.999998E-3,,,,,-237.99998E-6,79.999998E-3,
,,,-237.79998E-6,79.999998E-3,,,,,-237.79998E-6,120.0000E-3,
,,,-237.59998E-6,79.999998E-3,,,,,-237.59998E-6,120.0000E-3,
,,,-237.39999E-6,79.999998E-3,,,,,-237.39999E-6,120.0000E-3,
,,,-237.19999E-6,79.999998E-3,,,,,-237.19999E-6,120.0000E-3,
,,,-236.99999E-6,79.999998E-3,,,,,-236.99999E-6,79.999998E-3,
,,,-236.79998E-6,120.0000E-3,,,,,-236.79998E-6,120.0000E-3,
,,,-236.59998E-6,120.0000E-3,,,,,-236.59998E-6,120.0000E-3,
,,,-236.39998E-6,120.0000E-3,,,,,-236.39998E-6,79.999998E-3,
,,,-236.19998E-6,120.0000E-3,,,,,-236.19998E-6,79.999998E-3,
,,,-235.99998E-6,120.0000E-3,,,,,-235.99998E-6,120.0000E-3,
,,,-235.79998E-6,79.999998E-3,,,,,-235.79998E-6,160.00000E-3,
,,,-235.59999E-6,0.0,,,,,-235.59999E-6,120.0000E-3,
,,,-235.39999E-6,120.0000E-3,,,,,-235.39999E-6,120.0000E-3,
,,,-235.19999E-6,120.0000E-3,,,,,-235.19999E-6,120.0000E-3,
,,,-234.99998E-6,79.999998E-3,,,,,-234.99998E-6,120.0000E-3,
,,,-234.79998E-6,120.0000E-3,,,,,-234.79998E-6,120.0000E-3,
,,,-234.59998E-6,79.999998E-3,,,,,-234.59998E-6,79.999998E-3,
,,,-234.39998E-6,79.999998E-3,,,,,-234.39998E-6,120.0000E-3,
,,,-234.19998E-6,79.999998E-3,,,,,-234.19998E-6,120.0000E-3,
,,,-233.99998E-6,40.00000E-3,,,,,-233.99998E-6,79.999998E-3,
,,,-233.79998E-6,79.999998E-3,,,,,-233.79998E-6,120.0000E-3,
,,,-233.59999E-6,120.0000E-3,,,,,-233.59999E-6,120.0000E-3,
,,,-233.39999E-6,40.00000E-3,,,,,-233.39999E-6,160.00000E-3,
,,,-233.19999E-6,120.0000E-3,,,,,-233.19999E-6,120.0000E-3,
,,,-232.99998E-6,120.0000E-3,,,,,-232.99998E-6,120.0000E-3,
,,,-232.79998E-6,120.0000E-3,,,,,-232.79998E-6,120.0000E-3,
,,,-232.59998E-6,79.999998E-3,,,,,-232.59998E-6,120.0000E-3,
,,,-232.39998E-6,120.0000E-3,,,,,-232.39998E-6,79.999998E-3,
,,,-232.19998E-6,79.999998E-3,,,,,-232.19998E-6,79.999998E-3,
,,,-231.99998E-6,120.0000E-3,,,,,-231.99998E-6,120.0000E-3,
,,,-231.79999E-6,79.999998E-3,,,,,-231.79999E-6,79.999998E-3,
,,,-231.59999E-6,120.0000E-3,,,,,-231.59999E-6,120.0000E-3,
,,,-231.39999E-6,160.00000E-3,,,,,-231.39999E-6,120.0000E-3,
,,,-231.19999E-6,120.0000E-3,,,,,-231.19999E-6,120.0000E-3,
,,,-230.99998E-6,120.0000E-3,,,,,-230.99998E-6,120.0000E-3,
,,,-230.79998E-6,40.00000E-3,,,,,-230.79998E-6,120.0000E-3,
,,,-230.59998E-6,120.0000E-3,,,,,-230.59998E-6,160.00000E-3,
,,,-230.39998E-6,79.999998E-3,,,,,-230.39998E-6,120.0000E-3,
,,,-230.19998E-6,40.00000E-3,,,,,-230.19998E-6,79.999998E-3,
,,,-229.99998E-6,120.0000E-3,,,,,-229.99998E-6,120.0000E-3,
,,,-229.79999E-6,120.0000E-3,,,,,-229.79999E-6,120.0000E-3,
,,,-229.59999E-6,79.999998E-3,,,,,-229.59999E-6,79.999998E-3,
,,,-229.39999E-6,120.0000E-3,,,,,-229.39999E-6,79.999998E-3,
,,,-229.19998E-6,120.0000E-3,,,,,-229.19998E-6,120.0000E-3,
,,,-228.99998E-6,79.999998E-3,,,,,-228.99998E-6,120.0000E-3,
,,,-228.79998E-6,79.999998E-3,,,,,-228.79998E-6,79.999998E-3,
,,,-228.59998E-6,79.999998E-3,,,,,-228.59998E-6,79.999998E-3,
,,,-228.39998E-6,79.999998E-3,,,,,-228.39998E-6,120.0000E-3,
,,,-228.19998E-6,79.999998E-3,,,,,-228.19998E-6,120.0000E-3,
,,,-227.99998E-6,120.0000E-3,,,,,-227.99998E-6,40.00000E-3,
,,,-227.79999E-6,79.999998E-3,,,,,-227.79999E-6,3.20000,
,,,-227.59999E-6,120.0000E-3,,,,,-227.59999E-6,3.24000,
,,,-227.39999E-6,79.999998E-3,,,,,-227.39999E-6,3.24000,
,,,-227.19998E-6,120.0000E-3,,,,,-227.19998E-6,3.20000,
,,,-226.99998E-6,120.0000E-3,,,,,-226.99998E-6,3.20000,
,,,-226.79998E-6,120.0000E-3,,,,,-226.79998E-6,3.16000,
,,,-226.59998E-6,79.999998E-3,,,,,-226.59998E-6,3.20000,
,,,-226.39998E-6,120.0000E-3,,,,,-226.39998E-6,3.20000,
,,,-226.19998E-6,120.0000E-3,,,,,-226.19998E-6,3.20000,
,,,-225.99999E-6,120.0000E-3,,,,,-225.99999E-6,3.20000,
,,,-225.79999E-6,79.999998E-3,,,,,-225.79999E-6,3.20000,
,,,-225.59999E-6,120.0000E-3,,,,,-225.59999E-6,3.20000,
,,,-225.39998E-6,120.0000E-3,,,,,-225.39998E-6,3.16000,
,,,-225.19998E-6,79.999998E-3,,,,,-225.19998E-6,3.20000,
,,,-224.99998E-6,120.0000E-3,,,,,-224.99998E-6,3.16000,
,,,-224.79998E-6,120.0000E-3,,,,,-224.79998E-6,3.20000,
,,,-224.59998E-6,120.0000E-3,,,,,-224.59998E-6,3.16000,
,,,-224.39998E-6,120.0000E-3,,,,,-224.39998E-6,3.20000,
,,,-224.19998E-6,79.999998E-3,,,,,-224.19998E-6,3.16000,
,,,-223.99999E-6,120.0000E-3,,,,,-223.99999E-6,3.16000,
,,,-223.79999E-6,160.00000E-3,,,,,-223.79999E-6,3.16000,
,,,-223.59999E-6,120.0000E-3,,,,,-223.59999E-6,3.12000,
,,,-223.39998E-6,120.0000E-3,,,,,-223.39998E-6,3.20000,
,,,-223.19998E-6,79.999998E-3,,,,,-223.19998E-6,3.20000,
,,,-222.99998E-6,120.0000E-3,,,,,-222.99998E-6,3.20000,
,,,-222.79998E-6,120.0000E-3,,,,,-222.79998E-6,3.16000,
,,,-222.59998E-6,79.999998E-3,,,,,-222.59998E-6,3.20000,
,,,-222.39998E-6,120.0000E-3,,,,,-222.39998E-6,3.20000,
,,,-222.19999E-6,160.00000E-3,,,,,-222.19999E-6,3.16000,
,,,-221.99999E-6,120.0000E-3,,,,,-221.99999E-6,3.24000,
,,,-221.79999E-6,120.0000E-3,,,,,-221.79999E-6,3.20000,
,,,-221.59998E-6,160.00000E-3,,,,,-221.59998E-6,3.20000,
,,,-221.39998E-6,120.0000E-3,,,,,-221.39998E-6,3.16000,
,,,-221.19998E-6,120.0000E-3,,,,,-221.19998E-6,3.16000,
,,,-220.99998E-6,79.999998E-3,,,,,-220.99998E-6,3.20000,
,,,-220.79998E-6,40.00000E-3,,,,,-220.79998E-6,3.20000,
,,,-220.59998E-6,79.999998E-3,,,,,-220.59998E-6,3.20000,
,,,-220.39998E-6,79.999998E-3,,,,,-220.39998E-6,3.20000,
,,,-220.19999E-6,120.0000E-3,,,,,-220.19999E-6,3.20000,
,,,-219.99999E-6,40.00000E-3,,,,,-219.99999E-6,3.20000,
,,,-219.79999E-6,120.0000E-3,,,,,-219.79999E-6,3.16000,
,,,-219.59998E-6,120.0000E-3,,,,,-219.59998E-6,3.16000,
,,,-219.39998E-6,79.999998E-3,,,,,-219.39998E-6,3.20000,
,,,-219.19998E-6,79.999998E-3,,,,,-219.19998E-6,3.16000,
,,,-218.99998E-6,120.0000E-3,,,,,-218.99998E-6,3.12000,
,,,-218.79998E-6,79.999998E-3,,,,,-218.79998E-6,3.16000,
,,,-218.59998E-6,120.0000E-3,,,,,-218.59998E-6,3.20000,
,,,-218.39999E-6,120.0000E-3,,,,,-218.39999E-6,3.20000,
,,,-218.19999E-6,79.999998E-3,,,,,-218.19999E-6,3.20000,
,,,-217.99999E-6,79.999998E-3,,,,,-217.99999E-6,3.20000,
,,,-217.79998E-6,79.999998E-3,,,,,-217.79998E-6,3.20000,
,,,-217.59998E-6,40.00000E-3,,,,,-217.59998E-6,3.20000,
,,,-217.39998E-6,120.0000E-3,,,,,-217.39998E-6,3.20000,
,,,-217.19998E-6,120.0000E-3,,,,,-217.19998E-6,3.16000,
,,,-216.99998E-6,120.0000E-3,,,,,-216.99998E-6,3.16000,
,,,-216.79998E-6,79.999998E-3,,,,,-216.79998E-6,3.16000,
,,,-216.59998E-6,79.999998E-3,,,,,-216.59998E-6,3.16000,
,,,-216.39999E-6,120.0000E-3,,,,,-216.39999E-6,3.16000,
,,,-216.19999E-6,79.999998E-3,,,,,-216.19999E-6,3.20000,
,,,-215.99999E-6,79.999998E-3,,,,,-215.99999E-6,3.16000,
,,,-215.79998E-6,79.999998E-3,,,,,-215.79998E-6,3.20000,
,,,-215.59998E-6,160.00000E-3,,,,,-215.59998E-6,3.16000,
,,,-215.39998E-6,160.00000E-3,,,,,-215.39998E-6,3.16000,
,,,-215.19998E-6,79.999998E-3,,,,,-215.19998E-6,3.16000,
,,,-214.99998E-6,79.999998E-3,,,,,-214.99998E-6,3.16000,
,,,-214.79998E-6,79.999998E-3,,,,,-214.79998E-6,3.16000,
,,,-214.59998E-6,40.00000E-3,,,,,-214.59998E-6,3.16000,
,,,-214.39999E-6,79.999998E-3,,,,,-214.39999E-6,3.16000,
,,,-214.19999E-6,79.999998E-3,,,,,-214.19999E-6,3.12000,
,,,-213.99999E-6,79.999998E-3,,,,,-213.99999E-6,3.16000,
,,,-213.79998E-6,160.00000E-3,,,,,-213.79998E-6,3.20000,
,,,-213.59998E-6,120.0000E-3,,,,,-213.59998E-6,3.16000,
,,,-213.39998E-6,79.999998E-3,,,,,-213.39998E-6,3.16000,
,,,-213.19998E-6,120.0000E-3,,,,,-213.19998E-6,3.16000,
,,,-212.99998E-6,120.0000E-3,,,,,-212.99998E-6,3.16000,
,,,-212.79998E-6,79.999998E-3,,,,,-212.79998E-6,3.12000,
,,,-212.59999E-6,79.999998E-3,,,,,-212.59999E-6,3.12000,
,,,-212.39999E-6,120.0000E-3,,,,,-212.39999E-6,3.16000,
,,,-212.19999E-6,120.0000E-3,,,,,-212.19999E-6,3.16000,
,,,-211.99998E-6,79.999998E-3,,,,,-211.99998E-6,3.20000,
,,,-211.79998E-6,120.0000E-3,,,,,-211.79998E-6,3.20000,
,,,-211.59998E-6,160.00000E-3,,,,,-211.59998E-6,3.16000,
,,,-211.39998E-6,120.0000E-3,,,,,-211.39998E-6,3.16000,
,,,-211.19998E-6,79.999998E-3,,,,,-211.19998E-6,3.12000,
,,,-210.99998E-6,79.999998E-3,,,,,-210.99998E-6,3.16000,
,,,-210.79998E-6,160.00000E-3,,,,,-210.79998E-6,3.12000,
,,,-210.59999E-6,120.0000E-3,,,,,-210.59999E-6,3.16000,
,,,-210.39999E-6,79.999998E-3,,,,,-210.39999E-6,3.20000,
,,,-210.19999E-6,79.999998E-3,,,,,-210.19999E-6,3.16000,
,,,-209.99998E-6,120.0000E-3,,,,,-209.99998E-6,3.16000,
,,,-209.79998E-6,120.0000E-3,,,,,-209.79998E-6,3.20000,
,,,-209.59998E-6,120.0000E-3,,,,,-209.59998E-6,3.16000,
,,,-209.39998E-6,120.0000E-3,,,,,-209.39998E-6,3.16000,
,,,-209.19998E-6,79.999998E-3,,,,,-209.19998E-6,3.20000,
,,,-208.99998E-6,79.999998E-3,,,,,-208.99998E-6,3.12000,
,,,-208.79999E-6,79.999998E-3,,,,,-208.79999E-6,3.12000,
,,,-208.59999E-6,79.999998E-3,,,,,-208.59999E-6,3.16000,
,,,-208.39999E-6,79.999998E-3,,,,,-208.39999E-6,3.16000,
,,,-208.19998E-6,160.00000E-3,,,,,-208.19998E-6,3.16000,
,,,-207.99998E-6,120.0000E-3,,,,,-207.99998E-6,3.20000,
,,,-207.79998E-6,79.999998E-3,,,,,-207.79998E-6,3.16000,
,,,-207.59998E-6,160.00000E-3,,,,,-207.59998E-6,3.16000,
,,,-207.39998E-6,79.999998E-3,,,,,-207.39998E-6,3.20000,
,,,-207.19998E-6,160.00000E-3,,,,,-207.19998E-6,3.16000,
,,,-206.99998E-6,0.0,,,,,-206.99998E-6,120.0000E-3,
,,,-206.79999E-6,3.16000,,,,,-206.79999E-6,160.00000E-3,
,,,-206.59999E-6,3.16000,,,,,-206.59999E-6,160.00000E-3,
,,,-206.39999E-6,3.12000,,,,,-206.39999E-6,120.0000E-3,
,,,-206.19998E-6,3.12000,,,,,-206.19998E-6,120.0000E-3,
,,,-205.99998E-6,3.12000,,,,,-205.99998E-6,160.00000E-3,
,,,-205.79998E-6,3.12000,,,,,-205.79998E-6,160.00000E-3,
,,,-205.59998E-6,3.12000,,,,,-205.59998E-6,199.99999E-3,
,,,-205.39998E-6,3.12000,,,,,-205.39998E-6,160.00000E-3,
,,,-205.19998E-6,3.12000,,,,,-205.19998E-6,120.0000E-3,
,,,-204.99999E-6,3.12000,,,,,-204.99999E-6,160.00000E-3,
,,,-204.79999E-6,3.08000,,,,,-204.79999E-6,120.0000E-3,
,,,-204.59999E-6,3.12000,,,,,-204.59999E-6,120.0000E-3,
,,,-204.39998E-6,3.12000,,,,,-204.39998E-6,120.0000E-3,
,,,-204.19998E-6,3.16000,,,,,-204.19998E-6,160.00000E-3,
,,,-203.99998E-6,3.12000,,,,,-203.99998E-6,120.0000E-3,
,,,-203.79998E-6,3.16000,,,,,-203.79998E-6,160.00000E-3,
,,,-203.59998E-6,3.12000,,,,,-203.59998E-6,160.00000E-3,
,,,-203.39998E-6,3.12000,,,,,-203.39998E-6,120.0000E-3,
,,,-203.19998E-6,3.16000,,,,,-203.19998E-6,160.00000E-3,
,,,-202.99999E-6,3.12000,,,,,-202.99999E-6,120.0000E-3,
,,,-202.79999E-6,3.16000,,,,,-202.79999E-6,160.00000E-3,
,,,-202.59999E-6,3.16000,,,,,-202.59999E-6,160.00000E-3,
,,,-202.39998E-6,3.16000,,,,,-202.39998E-6,199.99999E-3,
,,,-202.19998E-6,3.12000,,,,,-202.19998E-6,120.0000E-3,
,,,-201.99998E-6,3.16000,,,,,-201.99998E-6,160.00000E-3,
,,,-201.79998E-6,3.16000,,,,,-201.79998E-6,120.0000E-3,
,,,-201.59998E-6,3.16000,,,,,-201.59998E-6,160.00000E-3,
,,,-201.39998E-6,3.12000,,,,,-201.39998E-6,199.99999E-3,
,,,-201.19997E-6,3.12000,,,,,-201.19997E-6,120.0000E-3,
,,,-200.99999E-6,3.16000,,,,,-200.99999E-6,199.99999E-3,
,,,-200.79999E-6,3.08000,,,,,-200.79999E-6,199.99999E-3,
,,,-200.59998E-6,3.12000,,,,,-200.59998E-6,160.00000E-3,
,,,-200.39998E-6,3.12000,,,,,-200.39998E-6,160.00000E-3,
,,,-200.19998E-6,3.12000,,,,,-200.19998E-6,199.99999E-3,
,,,-199.99998E-6,3.16000,,,,,-199.99998E-6,120.0000E-3,
,,,-199.79998E-6,3.12000,,,,,-199.79998E-6,199.99999E-3,
,,,-199.59998E-6,3.12000,,,,,-199.59998E-6,160.00000E-3,
,,,-199.39998E-6,3.16000,,,,,-199.39998E-6,160.00000E-3,
,,,-199.19999E-6,3.12000,,,,,-199.19999E-6,160.00000E-3,
,,,-198.99999E-6,3.12000,,,,,-198.99999E-6,199.99999E-3,
,,,-198.79999E-6,3.12000,,,,,-198.79999E-6,160.00000E-3,
,,,-198.59998E-6,3.16000,,,,,-198.59998E-6,160.00000E-3,
,,,-198.39998E-6,3.12000,,,,,-198.39998E-6,160.00000E-3,
,,,-198.19998E-6,3.16000,,,,,-198.19998E-6,120.0000E-3,
,,,-197.99998E-6,3.12000,,,,,-197.99998E-6,160.00000E-3,
,,,-197.79998E-6,3.16000,,,,,-197.79998E-6,160.00000E-3,
,,,-197.59998E-6,3.16000,,,,,-197.59998E-6,120.0000E-3,
,,,-197.39998E-6,3.12000,,,,,-197.39998E-6,160.00000E-3,
,,,-197.19999E-6,3.12000,,,,,-197.19999E-6,160.00000E-3,
,,,-196.99999E-6,3.20000,,,,,-196.99999E-6,199.99999E-3,
,,,-196.79999E-6,3.16000,,,,,-196.79999E-6,160.00000E-3,
,,,-196.59998E-6,3.16000,,,,,-196.59998E-6,120.0000E-3,
,,,-196.39998E-6,3.16000,,,,,-196.39998E-6,120.0000E-3,
,,,-196.19998E-6,3.20000,,,,,-196.19998E-6,120.0000E-3,
,,,-195.99998E-6,3.16000,,,,,-195.99998E-6,120.0000E-3,
,,,-195.79998E-6,3.12000,,,,,-195.79998E-6,120.0000E-3,
,,,-195.59998E-6,3.16000,,,,,-195.59998E-6,120.0000E-3,
,,,-195.39999E-6,3.12000,,,,,-195.39999E-6,79.999998E-3,
,,,-195.19999E-6,3.20000,,,,,-195.19999E-6,120.0000E-3,
,,,-194.99999E-6,3.16000,,,,,-194.99999E-6,120.0000E-3,
,,,-194.79998E-6,3.12000,,,,,-194.79998E-6,79.999998E-3,
,,,-194.59998E-6,3.12000,,,,,-194.59998E-6,160.00000E-3,
,,,-194.39998E-6,3.16000,,,,,-194.39998E-6,79.999998E-3,
,,,-194.19998E-6,3.16000,,,,,-194.19998E-6,120.0000E-3,
,,,-193.99998E-6,3.16000,,,,,-193.99998E-6,120.0000E-3,
,,,-193.79998E-6,3.12000,,,,,-193.79998E-6,120.0000E-3,
,,,-193.59998E-6,3.16000,,,,,-193.59998E-6,120.0000E-3,
,,,-193.39999E-6,3.16000,,,,,-193.39999E-6,120.0000E-3,
,,,-193.19999E-6,3.12000,,,,,-193.19999E-6,120.0000E-3,
,,,-192.99999E-6,3.16000,,,,,-192.99999E-6,120.0000E-3,
,,,-192.79998E-6,3.16000,,,,,-192.79998E-6,120.0000E-3,
,,,-192.59998E-6,3.16000,,,,,-192.59998E-6,120.0000E-3,
,,,-192.39998E-6,3.16000,,,,,-192.39998E-6,120.0000E-3,
,,,-192.19998E-6,3.12000,,,,,-192.19998E-6,120.0000E-3,
,,,-191.99998E-6,3.16000,,,,,-191.99998E-6,120.0000E-3,
,,,-191.79998E-6,3.24000,,,,,-191.79998E-6,120.0000E-3,
,,,-191.59999E-6,3.16000,,,,,-191.59999E-6,120.0000E-3,
,,,-191.39999E-6,3.12000,,,,,-191.39999E-6,79.999998E-3,
,,,-191.19999E-6,3.16000,,,,,-191.19999E-6,120.0000E-3,
,,,-190.99998E-6,3.16000,,,,,-190.99998E-6,160.00000E-3,
,,,-190.79998E-6,3.12000,,,,,-190.79998E-6,120.0000E-3,
,,,-190.59998E-6,3.16000,,,,,-190.59998E-6,120.0000E-3,
,,,-190.39998E-6,3.12000,,,,,-190.39998E-6,79.999998E-3,
,,,-190.19998E-6,3.16000,,,,,-190.19998E-6,40.00000E-3,
,,,-189.99998E-6,3.20000,,,,,-189.99998E-6,79.999998E-3,
,,,-189.79998E-6,3.16000,,,,,-189.79998E-6,120.0000E-3,
,,,-189.59999E-6,3.12000,,,,,-189.59999E-6,120.0000E-3,
,,,-189.39999E-6,3.12000,,,,,-189.39999E-6,79.999998E-3,
,,,-189.19999E-6,3.16000,,,,,-189.19999E-6,120.0000E-3,
,,,-188.99998E-6,3.12000,,,,,-188.99998E-6,120.0000E-3,
,,,-188.79998E-6,3.16000,,,,,-188.79998E-6,79.999998E-3,
,,,-188.59998E-6,3.16000,,,,,-188.59998E-6,79.999998E-3,
,,,-188.39998E-6,3.20000,,,,,-188.39998E-6,79.999998E-3,
,,,-188.19998E-6,3.20000,,,,,-188.19998E-6,120.0000E-3,
,,,-187.99998E-6,3.16000,,,,,-187.99998E-6,79.999998E-3,
,,,-187.79997E-6,3.20000,,,,,-187.79997E-6,120.0000E-3,
,,,-187.59999E-6,3.16000,,,,,-187.59999E-6,120.0000E-3,
,,,-187.39999E-6,3.16000,,,,,-187.39999E-6,79.999998E-3,
,,,-187.19998E-6,3.12000,,,,,-187.19998E-6,120.0000E-3,
,,,-186.99998E-6,3.20000,,,,,-186.99998E-6,120.0000E-3,
,,,-186.79998E-6,3.16000,,,,,-186.79998E-6,120.0000E-3,
,,,-186.59998E-6,3.12000,,,,,-186.59998E-6,40.00000E-3,
,,,-186.39998E-6,3.12000,,,,,-186.39998E-6,79.999998E-3,
,,,-186.19998E-6,3.24000,,,,,-186.19998E-6,3.24000,
,,,-185.99998E-6,3.12000,,,,,-185.99998E-6,3.24000,
,,,-185.79999E-6,3.16000,,,,,-185.79999E-6,3.24000,
,,,-185.59999E-6,3.16000,,,,,-185.59999E-6,3.20000,
,,,-185.39999E-6,3.16000,,,,,-185.39999E-6,3.24000,
,,,-185.19998E-6,3.16000,,,,,-185.19998E-6,3.20000,
,,,-184.99998E-6,3.12000,,,,,-184.99998E-6,3.20000,
,,,-184.79998E-6,3.12000,,,,,-184.79998E-6,3.20000,
,,,-184.59998E-6,3.12000,,,,,-184.59998E-6,3.20000,
,,,-184.39998E-6,3.16000,,,,,-184.39998E-6,3.20000,
,,,-184.19998E-6,3.12000,,,,,-184.19998E-6,3.20000,
,,,-183.99997E-6,3.16000,,,,,-183.99997E-6,3.16000,
,,,-183.79999E-6,3.20000,,,,,-183.79999E-6,3.20000,
,,,-183.59999E-6,3.16000,,,,,-183.59999E-6,3.16000,
,,,-183.39998E-6,3.16000,,,,,-183.39998E-6,3.16000,
,,,-183.19998E-6,3.16000,,,,,-183.19998E-6,3.16000,
,,,-182.99998E-6,3.12000,,,,,-182.99998E-6,3.16000,
,,,-182.79998E-6,3.12000,,,,,-182.79998E-6,3.16000,
