Esercitazione11/data/4OutM.csv

Record Length,2500,Points,-249.99998E-6,680.000007E-3,,Record Length,2500,Points,-249.99998E-6,40.00000E-3,
Sample Interval,200.00000E-9,s,-249.79998E-6,680.000007E-3,,Sample Interval,200.00000E-9,s,-249.79998E-6,40.00000E-3,
Trigger Point,1.2500E3,Samples,-249.59998E-6,680.000007E-3,,Trigger Point,1.2500E3,Samples,-249.59998E-6,40.00000E-3,
,,,-249.39998E-6,719.999969E-3,,,,,-249.39998E-6,40.00000E-3,
,,,-249.19998E-6,719.999969E-3,,,,,-249.19998E-6,40.00000E-3,
,,,-248.99998E-6,719.999969E-3,,,,,-248.99998E-6,40.00000E-3,
Source,CH1,,-248.79997E-6,680.000007E-3,,Source,CH2,,-248.79997E-6,40.00000E-3,
Vertical Units,Volts,,-248.59997E-6,719.999969E-3,,Vertical Units,Volts,,-248.59997E-6,40.00000E-3,
Vertical Scale,1.000,,-248.39997E-6,719.999969E-3,,Vertical Scale,1.000,,-248.39997E-6,40.00000E-3,
Vertical Offset,0,,-248.19997E-6,719.999969E-3,,Vertical Offset,0,,-248.19997E-6,40.00000E-3,
Horizontal Units,s,,-248.00000E-6,719.999969E-3,,Horizontal Units,s,,-248.00000E-6,40.00000E-3,
Horizontal Scale,50.00000E-6,,-247.80000E-6,719.999969E-3,,Horizontal Scale,50.00000E-6,,-247.80000E-6,40.00000E-3,
Pt Fmt,Y,,-247.59999E-6,719.999969E-3,,Pt Fmt,Y,,-247.59999E-6,40.00000E-3,
Yzero,-720.000000E-3,,-247.39999E-6,719.999969E-3,,Yzero,-2.0000,,-247.39999E-6,40.00000E-3,
Probe Atten,10.0000,,-247.19999E-6,719.999969E-3,,Probe Atten,10.0000,,-247.19999E-6,40.00000E-3,
,,,-246.99999E-6,719.999969E-3,,,,,-246.99999E-6,40.00000E-3,
Note,TDS 1012C-EDU - 17:46:21   28/03/2017,,-246.79999E-6,719.999969E-3,,Note,TDS 1012C-EDU - 17:46:21   28/03/2017,,-246.79999E-6,40.00000E-3,
,,,-246.59999E-6,719.999969E-3,,,,,-246.59999E-6,40.00000E-3,
,,,-246.39998E-6,719.999969E-3,,,,,-246.39998E-6,40.00000E-3,
,,,-246.19998E-6,719.999969E-3,,,,,-246.19998E-6,40.00000E-3,
,,,-245.99998E-6,719.999969E-3,,,,,-245.99998E-6,40.00000E-3,
,,,-245.79998E-6,719.999969E-3,,,,,-245.79998E-6,40.00000E-3,
,,,-245.59998E-6,719.999969E-3,,,,,-245.59998E-6,40.00000E-3,
,,,-245.39998E-6,719.999969E-3,,,,,-245.39998E-6,40.00000E-3,
,,,-245.19998E-6,719.999969E-3,,,,,-245.19998E-6,40.00000E-3,
,,,-244.99997E-6,719.999969E-3,,,,,-244.99997E-6,40.00000E-3,
,,,-244.79997E-6,719.999969E-3,,,,,-244.79997E-6,40.00000E-3,
,,,-244.59997E-6,719.999969E-3,,,,,-244.59997E-6,40.00000E-3,
,,,-244.39997E-6,719.999969E-3,,,,,-244.39997E-6,40.00000E-3,
,,,-244.20000E-6,719.999969E-3,,,,,-244.20000E-6,40.00000E-3,
,,,-243.99998E-6,719.999969E-3,,,,,-243.99998E-6,40.00000E-3,
,,,-243.79998E-6,719.999969E-3,,,,,-243.79998E-6,40.00000E-3,
,,,-243.59998E-6,719.999969E-3,,,,,-243.59998E-6,40.00000E-3,
,,,-243.39998E-6,719.999969E-3,,,,,-243.39998E-6,40.00000E-3,
,,,-243.19999E-6,719.999969E-3,,,,,-243.19999E-6,40.00000E-3,
,,,-242.99999E-6,719.999969E-3,,,,,-242.99999E-6,40.00000E-3,
,,,-242.79999E-6,719.999969E-3,,,,,-242.79999E-6,40.00000E-3,
,,,-242.59998E-6,719.999969E-3,,,,,-242.59998E-6,40.00000E-3,
,,,-242.39998E-6,719.999969E-3,,,,,-242.39998E-6,40.00000E-3,
,,,-242.19998E-6,719.999969E-3,,,,,-242.19998E-6,40.00000E-3,
,,,-241.99998E-6,719.999969E-3,,,,,-241.99998E-6,40.00000E-3,
,,,-241.79998E-6,719.999969E-3,,,,,-241.79998E-6,40.00000E-3,
,,,-241.59998E-6,719.999969E-3,,,,,-241.59998E-6,40.00000E-3,
,,,-241.39998E-6,719.999969E-3,,,,,-241.39998E-6,40.00000E-3,
,,,-241.19999E-6,719.999969E-3,,,,,-241.19999E-6,40.00000E-3,
,,,-240.99999E-6,719.999969E-3,,,,,-240.99999E-6,40.00000E-3,
,,,-240.79999E-6,719.999969E-3,,,,,-240.79999E-6,40.00000E-3,
,,,-240.59998E-6,719.999969E-3,,,,,-240.59998E-6,40.00000E-3,
,,,-240.39998E-6,719.999969E-3,,,,,-240.39998E-6,40.00000E-3,
,,,-240.19998E-6,719.999969E-3,,,,,-240.19998E-6,40.00000E-3,
,,,-239.99998E-6,719.999969E-3,,,,,-239.99998E-6,40.00000E-3,
,,,-239.79998E-6,719.999969E-3,,,,,-239.79998E-6,40.00000E-3,
,,,-239.59998E-6,719.999969E-3,,,,,-239.59998E-6,40.00000E-3,
,,,-239.39999E-6,719.999969E-3,,,,,-239.39999E-6,40.00000E-3,
,,,-239.19999E-6,719.999969E-3,,,,,-239.19999E-6,40.00000E-3,
,,,-238.99999E-6,719.999969E-3,,,,,-238.99999E-6,40.00000E-3,
,,,-238.79998E-6,719.999969E-3,,,,,-238.79998E-6,40.00000E-3,
,,,-238.59998E-6,719.999969E-3,,,,,-238.59998E-6,40.00000E-3,
,,,-238.39998E-6,719.999969E-3,,,,,-238.39998E-6,40.00000E-3,
,,,-238.19998E-6,719.999969E-3,,,,,-238.19998E-6,40.00000E-3,
,,,-237.99998E-6,719.999969E-3,,,,,-237.99998E-6,40.00000E-3,
,,,-237.79998E-6,719.999969E-3,,,,,-237.79998E-6,40.00000E-3,
,,,-237.59998E-6,719.999969E-3,,,,,-237.59998E-6,40.00000E-3,
,,,-237.39999E-6,719.999969E-3,,,,,-237.39999E-6,40.00000E-3,
,,,-237.19999E-6,719.999969E-3,,,,,-237.19999E-6,40.00000E-3,
,,,-236.99999E-6,719.999969E-3,,,,,-236.99999E-6,40.00000E-3,
,,,-236.79998E-6,719.999969E-3,,,,,-236.79998E-6,40.00000E-3,
,,,-236.59998E-6,719.999969E-3,,,,,-236.59998E-6,40.00000E-3,
,,,-236.39998E-6,719.999969E-3,,,,,-236.39998E-6,40.00000E-3,
,,,-236.19998E-6,719.999969E-3,,,,,-236.19998E-6,40.00000E-3,
,,,-235.99998E-6,719.999969E-3,,,,,-235.99998E-6,40.00000E-3,
,,,-235.79998E-6,719.999969E-3,,,,,-235.79998E-6,40.00000E-3,
,,,-235.59999E-6,719.999969E-3,,,,,-235.59999E-6,40.00000E-3,
,,,-235.39999E-6,719.999969E-3,,,,,-235.39999E-6,40.00000E-3,
,,,-235.19999E-6,719.999969E-3,,,,,-235.19999E-6,40.00000E-3,
,,,-234.99998E-6,719.999969E-3,,,,,-234.99998E-6,40.00000E-3,
,,,-234.79998E-6,719.999969E-3,,,,,-234.79998E-6,40.00000E-3,
,,,-234.59998E-6,719.999969E-3,,,,,-234.59998E-6,40.00000E-3,
,,,-234.39998E-6,719.999969E-3,,,,,-234.39998E-6,40.00000E-3,
,,,-234.19998E-6,719.999969E-3,,,,,-234.19998E-6,40.00000E-3,
,,,-233.99998E-6,719.999969E-3,,,,,-233.99998E-6,40.00000E-3,
,,,-233.79998E-6,719.999969E-3,,,,,-233.79998E-6,40.00000E-3,
,,,-233.59999E-6,719.999969E-3,,,,,-233.59999E-6,40.00000E-3,
,,,-233.39999E-6,719.999969E-3,,,,,-233.39999E-6,40.00000E-3,
,,,-233.19999E-6,719.999969E-3,,,,,-233.19999E-6,40.00000E-3,
,,,-232.99998E-6,719.999969E-3,,,,,-232.99998E-6,40.00000E-3,
,,,-232.79998E-6,719.999969E-3,,,,,-232.79998E-6,40.00000E-3,
,,,-232.59998E-6,719.999969E-3,,,,,-232.59998E-6,40.00000E-3,
,,,-232.39998E-6,719.999969E-3,,,,,-232.39998E-6,40.00000E-3,
,,,-232.19998E-6,719.999969E-3,,,,,-232.19998E-6,40.00000E-3,
,,,-231.99998E-6,719.999969E-3,,,,,-231.99998E-6,40.00000E-3,
,,,-231.79999E-6,719.999969E-3,,,,,-231.79999E-6,40.00000E-3,
,,,-231.59999E-6,719.999969E-3,,,,,-231.59999E-6,40.00000E-3,
,,,-231.39999E-6,719.999969E-3,,,,,-231.39999E-6,40.00000E-3,
,,,-231.19999E-6,719.999969E-3,,,,,-231.19999E-6,40.00000E-3,
,,,-230.99998E-6,719.999969E-3,,,,,-230.99998E-6,40.00000E-3,
,,,-230.79998E-6,719.999969E-3,,,,,-230.79998E-6,40.00000E-3,
,,,-230.59998E-6,719.999969E-3,,,,,-230.59998E-6,40.00000E-3,
,,,-230.39998E-6,719.999969E-3,,,,,-230.39998E-6,40.00000E-3,
,,,-230.19998E-6,719.999969E-3,,,,,-230.19998E-6,40.00000E-3,
,,,-229.99998E-6,719.999969E-3,,,,,-229.99998E-6,40.00000E-3,
,,,-229.79999E-6,719.999969E-3,,,,,-229.79999E-6,40.00000E-3,
,,,-229.59999E-6,719.999969E-3,,,,,-229.59999E-6,40.00000E-3,
,,,-229.39999E-6,719.999969E-3,,,,,-229.39999E-6,40.00000E-3,
,,,-229.19998E-6,719.999969E-3,,,,,-229.19998E-6,40.00000E-3,
,,,-228.99998E-6,719.999969E-3,,,,,-228.99998E-6,40.00000E-3,
,,,-228.79998E-6,719.999969E-3,,,,,-228.79998E-6,40.00000E-3,
,,,-228.59998E-6,719.999969E-3,,,,,-228.59998E-6,40.00000E-3,
,,,-228.39998E-6,719.999969E-3,,,,,-228.39998E-6,40.00000E-3,
,,,-228.19998E-6,719.999969E-3,,,,,-228.19998E-6,40.00000E-3,
,,,-227.99998E-6,719.999969E-3,,,,,-227.99998E-6,40.00000E-3,
,,,-227.79999E-6,719.999969E-3,,,,,-227.79999E-6,40.00000E-3,
,,,-227.59999E-6,719.999969E-3,,,,,-227.59999E-6,40.00000E-3,
,,,-227.39999E-6,719.999969E-3,,,,,-227.39999E-6,40.00000E-3,
,,,-227.19998E-6,719.999969E-3,,,,,-227.19998E-6,40.00000E-3,
,,,-226.99998E-6,719.999969E-3,,,,,-226.99998E-6,40.00000E-3,
,,,-226.79998E-6,719.999969E-3,,,,,-226.79998E-6,40.00000E-3,
,,,-226.59998E-6,719.999969E-3,,,,,-226.59998E-6,40.00000E-3,
,,,-226.39998E-6,719.999969E-3,,,,,-226.39998E-6,40.00000E-3,
,,,-226.19998E-6,719.999969E-3,,,,,-226.19998E-6,40.00000E-3,
,,,-225.99999E-6,719.999969E-3,,,,,-225.99999E-6,40.00000E-3,
,,,-225.79999E-6,719.999969E-3,,,,,-225.79999E-6,40.00000E-3,
,,,-225.59999E-6,719.999969E-3,,,,,-225.59999E-6,40.00000E-3,
,,,-225.39998E-6,719.999969E-3,,,,,-225.39998E-6,40.00000E-3,
,,,-225.19998E-6,719.999969E-3,,,,,-225.19998E-6,40.00000E-3,
,,,-224.99998E-6,719.999969E-3,,,,,-224.99998E-6,40.00000E-3,
,,,-224.79998E-6,719.999969E-3,,,,,-224.79998E-6,40.00000E-3,
,,,-224.59998E-6,719.999969E-3,,,,,-224.59998E-6,40.00000E-3,
,,,-224.39998E-6,719.999969E-3,,,,,-224.39998E-6,40.00000E-3,
,,,-224.19998E-6,719.999969E-3,,,,,-224.19998E-6,40.00000E-3,
,,,-223.99999E-6,719.999969E-3,,,,,-223.99999E-6,40.00000E-3,
,,,-223.79999E-6,719.999969E-3,,,,,-223.79999E-6,40.00000E-3,
,,,-223.59999E-6,719.999969E-3,,,,,-223.59999E-6,40.00000E-3,
,,,-223.39998E-6,719.999969E-3,,,,,-223.39998E-6,40.00000E-3,
,,,-223.19998E-6,719.999969E-3,,,,,-223.19998E-6,40.00000E-3,
,,,-222.99998E-6,719.999969E-3,,,,,-222.99998E-6,40.00000E-3,
,,,-222.79998E-6,719.999969E-3,,,,,-222.79998E-6,40.00000E-3,
,,,-222.59998E-6,719.999969E-3,,,,,-222.59998E-6,40.00000E-3,
,,,-222.39998E-6,719.999969E-3,,,,,-222.39998E-6,40.00000E-3,
,,,-222.19999E-6,719.999969E-3,,,,,-222.19999E-6,40.00000E-3,
,,,-221.99999E-6,719.999969E-3,,,,,-221.99999E-6,40.00000E-3,
,,,-221.79999E-6,719.999969E-3,,,,,-221.79999E-6,40.00000E-3,
,,,-221.59998E-6,719.999969E-3,,,,,-221.59998E-6,40.00000E-3,
,,,-221.39998E-6,719.999969E-3,,,,,-221.39998E-6,40.00000E-3,
,,,-221.19998E-6,719.999969E-3,,,,,-221.19998E-6,40.00000E-3,
,,,-220.99998E-6,719.999969E-3,,,,,-220.99998E-6,40.00000E-3,
,,,-220.79998E-6,719.999969E-3,,,,,-220.79998E-6,40.00000E-3,
,,,-220.59998E-6,719.999969E-3,,,,,-220.59998E-6,40.00000E-3,
,,,-220.39998E-6,719.999969E-3,,,,,-220.39998E-6,40.00000E-3,
,,,-220.19999E-6,719.999969E-3,,,,,-220.19999E-6,40.00000E-3,
,,,-219.99999E-6,719.999969E-3,,,,,-219.99999E-6,40.00000E-3,
,,,-219.79999E-6,719.999969E-3,,,,,-219.79999E-6,40.00000E-3,
,,,-219.59998E-6,719.999969E-3,,,,,-219.59998E-6,40.00000E-3,
,,,-219.39998E-6,719.999969E-3,,,,,-219.39998E-6,40.00000E-3,
,,,-219.19998E-6,759.999990E-3,,,,,-219.19998E-6,40.00000E-3,
,,,-218.99998E-6,719.999969E-3,,,,,-218.99998E-6,40.00000E-3,
,,,-218.79998E-6,719.999969E-3,,,,,-218.79998E-6,40.00000E-3,
,,,-218.59998E-6,719.999969E-3,,,,,-218.59998E-6,40.00000E-3,
,,,-218.39999E-6,719.999969E-3,,,,,-218.39999E-6,40.00000E-3,
,,,-218.19999E-6,719.999969E-3,,,,,-218.19999E-6,40.00000E-3,
,,,-217.99999E-6,719.999969E-3,,,,,-217.99999E-6,40.00000E-3,
,,,-217.79998E-6,719.999969E-3,,,,,-217.79998E-6,40.00000E-3,
,,,-217.59998E-6,719.999969E-3,,,,,-217.59998E-6,40.00000E-3,
,,,-217.39998E-6,719.999969E-3,,,,,-217.39998E-6,40.00000E-3,
,,,-217.19998E-6,719.999969E-3,,,,,-217.19998E-6,40.00000E-3,
,,,-216.99998E-6,759.999990E-3,,,,,-216.99998E-6,40.00000E-3,
,,,-216.79998E-6,719.999969E-3,,,,,-216.79998E-6,40.00000E-3,
,,,-216.59998E-6,719.999969E-3,,,,,-216.59998E-6,40.00000E-3,
,,,-216.39999E-6,719.999969E-3,,,,,-216.39999E-6,40.00000E-3,
,,,-216.19999E-6,719.999969E-3,,,,,-216.19999E-6,40.00000E-3,
,,,-215.99999E-6,759.999990E-3,,,,,-215.99999E-6,40.00000E-3,
,,,-215.79998E-6,719.999969E-3,,,,,-215.79998E-6,40.00000E-3,
,,,-215.59998E-6,719.999969E-3,,,,,-215.59998E-6,40.00000E-3,
,,,-215.39998E-6,719.999969E-3,,,,,-215.39998E-6,40.00000E-3,
,,,-215.19998E-6,719.999969E-3,,,,,-215.19998E-6,40.00000E-3,
,,,-214.99998E-6,719.999969E-3,,,,,-214.99998E-6,40.00000E-3,
,,,-214.79998E-6,719.999969E-3,,,,,-214.79998E-6,40.00000E-3,
,,,-214.59998E-6,719.999969E-3,,,,,-214.59998E-6,40.00000E-3,
,,,-214.39999E-6,719.999969E-3,,,,,-214.39999E-6,40.00000E-3,
,,,-214.19999E-6,719.999969E-3,,,,,-214.19999E-6,40.00000E-3,
,,,-213.99999E-6,719.999969E-3,,,,,-213.99999E-6,40.00000E-3,
,,,-213.79998E-6,719.999969E-3,,,,,-213.79998E-6,40.00000E-3,
,,,-213.59998E-6,719.999969E-3,,,,,-213.59998E-6,40.00000E-3,
,,,-213.39998E-6,719.999969E-3,,,,,-213.39998E-6,40.00000E-3,
,,,-213.19998E-6,719.999969E-3,,,,,-213.19998E-6,40.00000E-3,
,,,-212.99998E-6,759.999990E-3,,,,,-212.99998E-6,40.00000E-3,
,,,-212.79998E-6,719.999969E-3,,,,,-212.79998E-6,40.00000E-3,
,,,-212.59999E-6,719.999969E-3,,,,,-212.59999E-6,40.00000E-3,
,,,-212.39999E-6,719.999969E-3,,,,,-212.39999E-6,40.00000E-3,
,,,-212.19999E-6,759.999990E-3,,,,,-212.19999E-6,40.00000E-3,
,,,-211.99998E-6,719.999969E-3,,,,,-211.99998E-6,40.00000E-3,
,,,-211.79998E-6,719.999969E-3,,,,,-211.79998E-6,40.00000E-3,
,,,-211.59998E-6,719.999969E-3,,,,,-211.59998E-6,40.00000E-3,
,,,-211.39998E-6,719.999969E-3,,,,,-211.39998E-6,40.00000E-3,
,,,-211.19998E-6,719.999969E-3,,,,,-211.19998E-6,40.00000E-3,
,,,-210.99998E-6,719.999969E-3,,,,,-210.99998E-6,40.00000E-3,
,,,-210.79998E-6,719.999969E-3,,,,,-210.79998E-6,40.00000E-3,
,,,-210.59999E-6,759.999990E-3,,,,,-210.59999E-6,40.00000E-3,
,,,-210.39999E-6,719.999969E-3,,,,,-210.39999E-6,40.00000E-3,
,,,-210.19999E-6,759.999990E-3,,,,,-210.19999E-6,40.00000E-3,
,,,-209.99998E-6,719.999969E-3,,,,,-209.99998E-6,40.00000E-3,
,,,-209.79998E-6,759.999990E-3,,,,,-209.79998E-6,40.00000E-3,
,,,-209.59998E-6,759.999990E-3,,,,,-209.59998E-6,79.999998E-3,
,,,-209.39998E-6,759.999990E-3,,,,,-209.39998E-6,79.999998E-3,
,,,-209.19998E-6,799.999952E-3,,,,,-209.19998E-6,199.99999E-3,
,,,-208.99998E-6,879.999995E-3,,,,,-208.99998E-6,319.99999E-3,
,,,-208.79999E-6,1.0800,,,,,-208.79999E-6,680.000007E-3,
,,,-208.59999E-6,1.6000,,,,,-208.59999E-6,1.2400,
,,,-208.39999E-6,2.1200,,,,,-208.39999E-6,1.8800,
,,,-208.19998E-6,2.6000,,,,,-208.19998E-6,2.6800,
,,,-207.99998E-6,3.00000,,,,,-207.99998E-6,3.12000,
,,,-207.79998E-6,3.16000,,,,,-207.79998E-6,3.40000,
,,,-207.59998E-6,3.20000,,,,,-207.59998E-6,3.56000,
,,,-207.39998E-6,3.16000,,,,,-207.39998E-6,3.60000,
,,,-207.19998E-6,3.12000,,,,,-207.19998E-6,3.60000,
,,,-206.99998E-6,3.04000,,,,,-206.99998E-6,3.60000,
,,,-206.79999E-6,3.00000,,,,,-206.79999E-6,3.60000,
,,,-206.59999E-6,2.96000,,,,,-206.59999E-6,3.60000,
,,,-206.39999E-6,2.88000,,,,,-206.39999E-6,3.60000,
,,,-206.19998E-6,2.84000,,,,,-206.19998E-6,3.64000,
,,,-205.99998E-6,2.80000,,,,,-205.99998E-6,3.64000,
,,,-205.79998E-6,2.76000,,,,,-205.79998E-6,3.64000,
,,,-205.59998E-6,2.72000,,,,,-205.59998E-6,3.64000,
,,,-205.39998E-6,2.6400,,,,,-205.39998E-6,3.64000,
,,,-205.19998E-6,2.6000,,,,,-205.19998E-6,3.64000,
,,,-204.99999E-6,2.5600,,,,,-204.99999E-6,3.64000,
,,,-204.79999E-6,2.5200,,,,,-204.79999E-6,3.64000,
,,,-204.59999E-6,2.4800,,,,,-204.59999E-6,3.64000,
,,,-204.39998E-6,2.4400,,,,,-204.39998E-6,3.64000,
,,,-204.19998E-6,2.4000,,,,,-204.19998E-6,3.64000,
,,,-203.99998E-6,2.3600,,,,,-203.99998E-6,3.64000,
,,,-203.79998E-6,2.3200,,,,,-203.79998E-6,3.64000,
,,,-203.59998E-6,2.2800,,,,,-203.59998E-6,3.64000,
,,,-203.39998E-6,2.2400,,,,,-203.39998E-6,3.64000,
,,,-203.19998E-6,2.2000,,,,,-203.19998E-6,3.64000,
,,,-202.99999E-6,2.1600,,,,,-202.99999E-6,3.64000,
,,,-202.79999E-6,2.1200,,,,,-202.79999E-6,3.64000,
,,,-202.59999E-6,2.0800,,,,,-202.59999E-6,3.64000,
,,,-202.39998E-6,2.0400,,,,,-202.39998E-6,3.64000,
,,,-202.19998E-6,2.0000,,,,,-202.19998E-6,3.64000,
,,,-201.99998E-6,1.9600,,,,,-201.99998E-6,3.64000,
,,,-201.79998E-6,1.9600,,,,,-201.79998E-6,3.64000,
,,,-201.59998E-6,1.9200,,,,,-201.59998E-6,3.64000,
,,,-201.39998E-6,1.8800,,,,,-201.39998E-6,3.64000,
,,,-201.19997E-6,1.8400,,,,,-201.19997E-6,3.64000,
,,,-200.99999E-6,1.8000,,,,,-200.99999E-6,3.64000,
,,,-200.79999E-6,1.8000,,,,,-200.79999E-6,3.64000,
,,,-200.59998E-6,1.7600,,,,,-200.59998E-6,3.64000,
,,,-200.39998E-6,1.7200,,,,,-200.39998E-6,3.64000,
,,,-200.19998E-6,1.6800,,,,,-200.19998E-6,3.64000,
,,,-199.99998E-6,1.6800,,,,,-199.99998E-6,3.64000,
,,,-199.79998E-6,1.6400,,,,,-199.79998E-6,3.64000,
,,,-199.59998E-6,1.6000,,,,,-199.59998E-6,3.68000,
,,,-199.39998E-6,1.6000,,,,,-199.39998E-6,3.68000,
,,,-199.19999E-6,1.5600,,,,,-199.19999E-6,3.68000,
,,,-198.99999E-6,1.5600,,,,,-198.99999E-6,3.68000,
,,,-198.79999E-6,1.5600,,,,,-198.79999E-6,3.68000,
,,,-198.59998E-6,1.5200,,,,,-198.59998E-6,3.68000,
,,,-198.39998E-6,1.5200,,,,,-198.39998E-6,3.68000,
,,,-198.19998E-6,1.5200,,,,,-198.19998E-6,3.68000,
,,,-197.99998E-6,1.4800,,,,,-197.99998E-6,3.68000,
,,,-197.79998E-6,1.4800,,,,,-197.79998E-6,3.68000,
,,,-197.59998E-6,1.4800,,,,,-197.59998E-6,3.68000,
,,,-197.39998E-6,1.4400,,,,,-197.39998E-6,3.68000,
,,,-197.19999E-6,1.4400,,,,,-197.19999E-6,3.68000,
,,,-196.99999E-6,1.4400,,,,,-196.99999E-6,3.68000,
,,,-196.79999E-6,1.4400,,,,,-196.79999E-6,3.68000,
,,,-196.59998E-6,1.4000,,,,,-196.59998E-6,3.68000,
,,,-196.39998E-6,1.4000,,,,,-196.39998E-6,3.68000,
,,,-196.19998E-6,1.4000,,,,,-196.19998E-6,3.68000,
,,,-195.99998E-6,1.3600,,,,,-195.99998E-6,3.68000,
,,,-195.79998E-6,1.3600,,,,,-195.79998E-6,3.68000,
,,,-195.59998E-6,1.3600,,,,,-195.59998E-6,3.68000,
,,,-195.39999E-6,1.3200,,,,,-195.39999E-6,3.68000,
,,,-195.19999E-6,1.3200,,,,,-195.19999E-6,3.68000,
,,,-194.99999E-6,1.3200,,,,,-194.99999E-6,3.68000,
,,,-194.79998E-6,1.3200,,,,,-194.79998E-6,3.68000,
,,,-194.59998E-6,1.2800,,,,,-194.59998E-6,3.68000,
,,,-194.39998E-6,1.2800,,,,,-194.39998E-6,3.68000,
,,,-194.19998E-6,1.2800,,,,,-194.19998E-6,3.68000,
,,,-193.99998E-6,1.2400,,,,,-193.99998E-6,3.68000,
,,,-193.79998E-6,1.2400,,,,,-193.79998E-6,3.68000,
,,,-193.59998E-6,1.2400,,,,,-193.59998E-6,3.68000,
,,,-193.39999E-6,1.2400,,,,,-193.39999E-6,3.68000,
,,,-193.19999E-6,1.2000,,,,,-193.19999E-6,3.68000,
,,,-192.99999E-6,1.2000,,,,,-192.99999E-6,3.68000,
,,,-192.79998E-6,1.2000,,,,,-192.79998E-6,3.68000,
,,,-192.59998E-6,1.2000,,,,,-192.59998E-6,3.68000,
,,,-192.39998E-6,1.2000,,,,,-192.39998E-6,3.68000,
,,,-192.19998E-6,1.1600,,,,,-192.19998E-6,3.68000,
,,,-191.99998E-6,1.1600,,,,,-191.99998E-6,3.68000,
,,,-191.79998E-6,1.1600,,,,,-191.79998E-6,3.68000,
,,,-191.59999E-6,1.1600,,,,,-191.59999E-6,3.68000,
,,,-191.39999E-6,1.1600,,,,,-191.39999E-6,3.68000,
,,,-191.19999E-6,1.1200,,,,,-191.19999E-6,3.68000,
,,,-190.99998E-6,1.1200,,,,,-190.99998E-6,3.68000,
,,,-190.79998E-6,1.1200,,,,,-190.79998E-6,3.68000,
,,,-190.59998E-6,1.1200,,,,,-190.59998E-6,3.68000,
,,,-190.39998E-6,1.1200,,,,,-190.39998E-6,3.68000,
,,,-190.19998E-6,1.1200,,,,,-190.19998E-6,3.68000,
,,,-189.99998E-6,1.0800,,,,,-189.99998E-6,3.68000,
,,,-189.79998E-6,1.0800,,,,,-189.79998E-6,3.68000,
,,,-189.59999E-6,1.0800,,,,,-189.59999E-6,3.68000,
,,,-189.39999E-6,1.0800,,,,,-189.39999E-6,3.68000,
,,,-189.19999E-6,1.0800,,,,,-189.19999E-6,3.68000,
,,,-188.99998E-6,1.0800,,,,,-188.99998E-6,3.68000,
,,,-188.79998E-6,1.0400,,,,,-188.79998E-6,3.68000,
,,,-188.59998E-6,1.0400,,,,,-188.59998E-6,3.68000,
,,,-188.39998E-6,1.0400,,,,,-188.39998E-6,3.68000,
,,,-188.19998E-6,1.0400,,,,,-188.19998E-6,3.68000,
,,,-187.99998E-6,1.0400,,,,,-187.99998E-6,3.68000,
,,,-187.79997E-6,1.0400,,,,,-187.79997E-6,3.68000,
,,,-187.59999E-6,1.0400,,,,,-187.59999E-6,3.68000,
,,,-187.39999E-6,1.0400,,,,,-187.39999E-6,3.68000,
,,,-187.19998E-6,1.000,,,,,-187.19998E-6,3.68000,
,,,-186.99998E-6,1.000,,,,,-186.99998E-6,3.68000,
,,,-186.79998E-6,1.000,,,,,-186.79998E-6,3.68000,
,,,-186.59998E-6,1.000,,,,,-186.59998E-6,3.68000,
,,,-186.39998E-6,1.000,,,,,-186.39998E-6,3.68000,
,,,-186.19998E-6,1.000,,,,,-186.19998E-6,3.68000,
,,,-185.99998E-6,1.000,,,,,-185.99998E-6,3.68000,
,,,-185.79999E-6,1.000,,,,,-185.79999E-6,3.68000,
,,,-185.59999E-6,959.999979E-3,,,,,-185.59999E-6,3.68000,
,,,-185.39999E-6,959.999979E-3,,,,,-185.39999E-6,3.68000,
,,,-185.19998E-6,959.999979E-3,,,,,-185.19998E-6,3.68000,
,,,-184.99998E-6,959.999979E-3,,,,,-184.99998E-6,3.68000,
,,,-184.79998E-6,959.999979E-3,,,,,-184.79998E-6,3.68000,
,,,-184.59998E-6,959.999979E-3,,,,,-184.59998E-6,3.68000,
,,,-184.39998E-6,959.999979E-3,,,,,-184.39998E-6,3.68000,
,,,-184.19998E-6,959.999979E-3,,,,,-184.19998E-6,3.68000,
,,,-183.99997E-6,959.999979E-3,,,,,-183.99997E-6,3.68000,
,,,-183.79999E-6,959.999979E-3,,,,,-183.79999E-6,3.68000,
,,,-183.59999E-6,959.999979E-3,,,,,-183.59999E-6,3.68000,
,,,-183.39998E-6,919.999957E-3,,,,,-183.39998E-6,3.68000,
,,,-183.19998E-6,919.999957E-3,,,,,-183.19998E-6,3.68000,
